[api-updater (non-obsolete-error-filter)] 20-08-2021 15:29:34 : Starting C:/Program Files/Unity/Hub/Editor/2020.3.14f1/Editor/Data/Tools/ScriptUpdater/APIUpdater.NonObsoleteApiUpdaterDetector.exe
[api-updater (non-obsolete-error-filter)] Exception caught while loading types from D:\UNITY PROJECTS\HCL TECHJAM\from-unitymicrophone\Library\ScriptAssemblies\Unity.TextMeshPro.Editor.dll (some types may not be loaded)
	Exception of type 'System.Reflection.ReflectionTypeLoadException' was thrown.
	  at (wrapper managed-to-native) System.Reflection.Assembly.GetTypes(System.Reflection.Assembly,bool)
  at System.Reflection.Assembly.GetTypes () [0x00000] in <695d1cc93cca45069c528c15c9fdd749>:0 
  at APIUpdater.NonObsoleteApiUpdaterDetector.ExtraInfoParser+<LoadTypesWithMovedFromAttributeAsync>d__3.MoveNext () [0x000c8] in <68bff7873e0e4aa69a14dfc30bebbe3e>:0 
	Could not load file or assembly 'UnityEditor.CoreModule, Version=0.0.0.0, Culture=neutral, PublicKeyToken=null' or one of its dependencies.

[api-updater (non-obsolete-error-filter)] 
----------------------------------
jit/startup time      : 1225.8313ms
moved types parse time: 101ms
candidates parse time : 2ms
C# parse time         : 575ms
candidates check time : 102ms
console write time    : 0ms

[api-updater (non-obsolete-error-filter)] 31-08-2021 14:48:42 : Starting C:/Program Files/Unity/Hub/Editor/2020.3.14f1/Editor/Data/Tools/ScriptUpdater/APIUpdater.NonObsoleteApiUpdaterDetector.exe
[api-updater (non-obsolete-error-filter)] 
----------------------------------
jit/startup time      : 4895.6586ms
moved types parse time: 211ms
candidates parse time : 1ms
C# parse time         : 1504ms
candidates check time : 142ms
console write time    : 2ms

[api-updater (non-obsolete-error-filter)] 31-08-2021 14:49:43 : Starting C:/Program Files/Unity/Hub/Editor/2020.3.14f1/Editor/Data/Tools/ScriptUpdater/APIUpdater.NonObsoleteApiUpdaterDetector.exe
[api-updater (non-obsolete-error-filter)] 
----------------------------------
jit/startup time      : 290.2203ms
moved types parse time: 131ms
candidates parse time : 1ms
C# parse time         : 232ms
candidates check time : 55ms
console write time    : 1ms

[api-updater (non-obsolete-error-filter)] 31-08-2021 14:51:02 : Starting C:/Program Files/Unity/Hub/Editor/2020.3.14f1/Editor/Data/Tools/ScriptUpdater/APIUpdater.NonObsoleteApiUpdaterDetector.exe
[api-updater (non-obsolete-error-filter)] 
----------------------------------
jit/startup time      : 203.3927ms
moved types parse time: 131ms
candidates parse time : 2ms
C# parse time         : 454ms
candidates check time : 58ms
console write time    : 0ms

[api-updater (non-obsolete-error-filter)] 31-08-2021 14:51:37 : Starting C:/Program Files/Unity/Hub/Editor/2020.3.14f1/Editor/Data/Tools/ScriptUpdater/APIUpdater.NonObsoleteApiUpdaterDetector.exe
[api-updater (non-obsolete-error-filter)] 
----------------------------------
jit/startup time      : 241.3545ms
moved types parse time: 161ms
candidates parse time : 2ms
C# parse time         : 332ms
candidates check time : 49ms
console write time    : 0ms

[api-updater (non-obsolete-error-filter)] 31-08-2021 14:52:25 : Starting C:/Program Files/Unity/Hub/Editor/2020.3.14f1/Editor/Data/Tools/ScriptUpdater/APIUpdater.NonObsoleteApiUpdaterDetector.exe
[api-updater (non-obsolete-error-filter)] 
----------------------------------
jit/startup time      : 191.5313ms
moved types parse time: 144ms
candidates parse time : 3ms
C# parse time         : 452ms
candidates check time : 67ms
console write time    : 0ms

[api-updater (non-obsolete-error-filter)] 31-08-2021 14:54:00 : Starting C:/Program Files/Unity/Hub/Editor/2020.3.14f1/Editor/Data/Tools/ScriptUpdater/APIUpdater.NonObsoleteApiUpdaterDetector.exe
[api-updater (non-obsolete-error-filter)] 
----------------------------------
jit/startup time      : 504.6479ms
moved types parse time: 189ms
candidates parse time : 2ms
C# parse time         : 337ms
candidates check time : 60ms
console write time    : 0ms

[api-updater (non-obsolete-error-filter)] 31-08-2021 14:55:24 : Starting C:/Program Files/Unity/Hub/Editor/2020.3.14f1/Editor/Data/Tools/ScriptUpdater/APIUpdater.NonObsoleteApiUpdaterDetector.exe
[api-updater (non-obsolete-error-filter)] 
----------------------------------
jit/startup time      : 405.1034ms
moved types parse time: 98ms
candidates parse time : 2ms
C# parse time         : 414ms
candidates check time : 32ms
console write time    : 0ms

[api-updater (non-obsolete-error-filter)] 31-08-2021 15:01:34 : Starting C:/Program Files/Unity/Hub/Editor/2020.3.14f1/Editor/Data/Tools/ScriptUpdater/APIUpdater.NonObsoleteApiUpdaterDetector.exe
[api-updater (non-obsolete-error-filter)] 
----------------------------------
jit/startup time      : 425.8316ms
moved types parse time: 136ms
candidates parse time : 3ms
C# parse time         : 413ms
candidates check time : 66ms
console write time    : 1ms

